// Jest Snapshot v1, https://goo.gl/fbAQLP

exports[`<Sidebar/> should be rendered correctly with isSidebarOpen = false 1`] = `
<aside>
  <nav
    style={
      Object {
        "left": "-250px",
        "opacity": "0",
      }
    }
  >
    <a
      aria-current="page"
      className="current-page"
      href="/"
      onClick={[Function]}
      style={Object {}}
    >
      Главная страница
    </a>
    <a
      aria-current={null}
      href="/projects"
      onClick={[Function]}
    >
      Мои проекты
    </a>
  </nav>
  <div
    id="sidebar-additional"
    onClick={[MockFunction]}
    style={
      Object {
        "left": 0,
        "opacity": 0,
        "width": 0,
      }
    }
  />
</aside>
`;

exports[`<Sidebar/> should be rendered correctly with isSidebarOpen = true 1`] = `
<aside>
  <nav
    style={
      Object {
        "left": "0",
        "opacity": "1",
      }
    }
  >
    <a
      aria-current="page"
      className="current-page"
      href="/"
      onClick={[Function]}
      style={Object {}}
    >
      Главная страница
    </a>
    <a
      aria-current={null}
      href="/projects"
      onClick={[Function]}
    >
      Мои проекты
    </a>
  </nav>
  <div
    id="sidebar-additional"
    onClick={[MockFunction]}
    style={
      Object {
        "left": "250px",
        "opacity": "0.6",
        "width": "100%",
      }
    }
  />
</aside>
`;
